1444479060	None
1444479120	None
1444479180	None
1444479240	None
1444479300	None
1444479360	None
1444479420	None
1444479480	None
1444479540	None
1444479600	None
1444479660	None
1444479720	None
1444479780	None
1444479840	None
1444479900	None
1444479960	None
1444480020	None
1444480080	None
1444480140	None
1444480200	None
1444480260	None
1444480320	None
1444480380	None
1444480440	None
1444480500	None
1444480560	None
1444480620	None
1444480680	None
1444480740	None
1444480800	None
1444480860	None
1444480920	None
1444480980	None
1444481040	None
1444481100	None
1444481160	None
1444481220	None
1444481280	None
1444481340	None
1444481400	None
1444481460	None
1444481520	None
1444481580	None
1444481640	None
1444481700	None
1444481760	None
1444481820	None
1444481880	None
1444481940	None
1444482000	None
1444482060	None
1444482120	None
1444482180	None
1444482240	None
1444482300	None
1444482360	None
1444482420	None
1444482480	None
1444482540	None
1444482600	None
1444482660	None
1444482720	None
1444482780	None
1444482840	None
1444482900	None
1444482960	None
1444483020	None
1444483080	None
1444483140	None
1444483200	None
1444483260	None
1444483320	None
1444483380	None
1444483440	None
1444483500	None
1444483560	None
1444483620	None
1444483680	None
1444483740	None
1444483800	None
1444483860	None
1444483920	None
1444483980	None
1444484040	None
1444484100	None
1444484160	None
1444484220	None
1444484280	None
1444484340	None
1444484400	None
1444484460	None
1444484520	None
1444484580	None
1444484640	None
1444484700	None
1444484760	None
1444484820	None
1444484880	None
1444484940	None
1444485000	None
1444485060	None
1444485120	None
1444485180	None
1444485240	None
1444485300	None
1444485360	None
1444485420	None
1444485480	None
1444485540	None
1444485600	None
1444485660	None
1444485720	None
1444485780	None
1444485840	None
1444485900	None
1444485960	None
1444486020	None
1444486080	None
1444486140	None
1444486200	None
1444486260	None
1444486320	None
1444486380	None
1444486440	None
1444486500	None
1444486560	None
1444486620	None
1444486680	None
1444486740	None
1444486800	None
1444486860	None
1444486920	None
1444486980	None
1444487040	None
1444487100	None
1444487160	None
1444487220	None
1444487280	None
1444487340	None
1444487400	None
1444487460	None
1444487520	None
1444487580	None
1444487640	None
1444487700	None
1444487760	None
1444487820	None
1444487880	None
1444487940	None
1444488000	None
1444488060	None
1444488120	None
1444488180	None
1444488240	None
1444488300	None
1444488360	None
1444488420	None
1444488480	None
1444488540	None
1444488600	None
1444488660	None
1444488720	None
1444488780	None
1444488840	None
1444488900	None
1444488960	None
1444489020	None
1444489080	None
1444489140	None
1444489200	None
1444489260	None
1444489320	None
1444489380	None
1444489440	None
1444489500	None
1444489560	None
1444489620	None
1444489680	None
1444489740	None
1444489800	None
1444489860	None
1444489920	None
1444489980	None
1444490040	None
1444490100	None
1444490160	None
1444490220	None
1444490280	None
1444490340	None
1444490400	None
1444490460	None
1444490520	None
1444490580	None
1444490640	None
1444490700	None
1444490760	None
1444490820	None
1444490880	None
1444490940	None
1444491000	None
1444491060	None
1444491120	None
1444491180	None
1444491240	None
1444491300	None
1444491360	None
1444491420	None
1444491480	None
1444491540	None
1444491600	None
1444491660	None
1444491720	None
1444491780	None
1444491840	None
1444491900	None
1444491960	None
1444492020	None
1444492080	None
1444492140	None
1444492200	None
1444492260	None
1444492320	None
1444492380	None
1444492440	None
1444492500	None
1444492560	None
1444492620	None
1444492680	None
1444492740	None
1444492800	None
1444492860	17.000000
1444492920	17.000000
1444492980	None
1444493040	60.000000
1444493100	None
1444493160	None
1444493220	None
1444493280	None
1444493340	None
1444493400	None
1444493460	None
1444493520	None
1444493580	None
1444493640	None
1444493700	None
1444493760	None
1444493820	None
1444493880	None
1444493940	None
1444494000	None
1444494060	None
1444494120	None
1444494180	None
1444494240	None
1444494300	None
1444494360	None
1444494420	None
1444494480	None
1444494540	None
1444494600	None
1444494660	None
1444494720	None
1444494780	None
1444494840	None
1444494900	None
1444494960	None
1444495020	None
1444495080	None
1444495140	None
1444495200	None
1444495260	None
1444495320	None
1444495380	None
1444495440	None
1444495500	None
1444495560	None
1444495620	None
1444495680	None
1444495740	None
1444495800	None
1444495860	None
1444495920	None
1444495980	None
1444496040	None
1444496100	None
1444496160	None
1444496220	None
1444496280	None
1444496340	None
1444496400	None
1444496460	None
1444496520	None
1444496580	None
1444496640	None
1444496700	None
1444496760	None
1444496820	None
1444496880	None
1444496940	None
1444497000	None
1444497060	None
1444497120	None
1444497180	None
1444497240	None
1444497300	None
1444497360	None
1444497420	None
1444497480	None
1444497540	None
1444497600	None
1444497660	None
1444497720	None
1444497780	None
1444497840	None
1444497900	None
1444497960	None
1444498020	None
1444498080	None
1444498140	None
1444498200	None
1444498260	None
1444498320	None
1444498380	None
1444498440	None
1444498500	None
1444498560	None
1444498620	None
1444498680	None
1444498740	None
1444498800	None
1444498860	None
1444498920	None
1444498980	None
1444499040	None
1444499100	None
1444499160	None
1444499220	None
1444499280	None
1444499340	None
1444499400	None
1444499460	None
1444499520	None
1444499580	None
1444499640	None
1444499700	None
1444499760	None
1444499820	None
1444499880	None
1444499940	None
1444500000	None
1444500060	None
1444500120	None
1444500180	None
1444500240	None
1444500300	None
1444500360	None
1444500420	None
1444500480	None
1444500540	None
1444500600	None
1444500660	None
1444500720	None
1444500780	None
1444500840	None
1444500900	None
1444500960	None
1444501020	None
1444501080	None
1444501140	None
1444501200	None
1444501260	None
1444501320	None
1444501380	None
1444501440	None
1444501500	None
1444501560	None
1444501620	None
1444501680	None
1444501740	None
1444501800	None
1444501860	None
1444501920	None
1444501980	None
1444502040	None
1444502100	None
1444502160	None
1444502220	None
1444502280	None
1444502340	None
1444502400	None
1444502460	None
1444502520	None
1444502580	None
1444502640	None
1444502700	None
1444502760	None
1444502820	None
1444502880	None
1444502940	None
1444503000	None
1444503060	None
1444503120	None
1444503180	None
1444503240	None
1444503300	None
1444503360	None
1444503420	None
1444503480	None
1444503540	None
1444503600	None
1444503660	None
1444503720	None
1444503780	None
1444503840	None
1444503900	None
1444503960	None
1444504020	None
1444504080	None
1444504140	None
1444504200	None
1444504260	None
1444504320	None
1444504380	None
1444504440	None
1444504500	None
1444504560	None
1444504620	None
1444504680	None
1444504740	None
1444504800	None
1444504860	None
1444504920	None
1444504980	None
1444505040	None
1444505100	None
1444505160	None
1444505220	None
1444505280	None
1444505340	None
1444505400	None
1444505460	None
1444505520	None
1444505580	None
1444505640	None
1444505700	None
1444505760	None
1444505820	None
1444505880	None
1444505940	None
1444506000	None
1444506060	None
1444506120	None
1444506180	None
1444506240	None
1444506300	None
1444506360	None
1444506420	None
1444506480	None
1444506540	None
1444506600	None
1444506660	None
1444506720	None
1444506780	None
1444506840	None
1444506900	None
1444506960	None
1444507020	None
1444507080	None
1444507140	None
1444507200	None
1444507260	None
1444507320	None
1444507380	None
1444507440	None
1444507500	None
1444507560	None
1444507620	None
1444507680	None
1444507740	None
1444507800	None
1444507860	None
1444507920	None
1444507980	None
1444508040	None
1444508100	None
1444508160	None
1444508220	None
1444508280	None
1444508340	None
1444508400	None
1444508460	None
1444508520	None
1444508580	None
1444508640	None
1444508700	None
1444508760	None
1444508820	None
1444508880	None
1444508940	None
1444509000	None
1444509060	None
1444509120	None
1444509180	None
1444509240	None
1444509300	None
1444509360	None
1444509420	None
1444509480	None
1444509540	None
1444509600	None
1444509660	None
1444509720	None
1444509780	None
1444509840	None
1444509900	None
1444509960	None
1444510020	None
1444510080	None
1444510140	None
1444510200	None
1444510260	None
1444510320	None
1444510380	None
1444510440	None
1444510500	None
1444510560	None
1444510620	None
1444510680	None
1444510740	None
1444510800	None
1444510860	None
1444510920	None
1444510980	None
1444511040	None
1444511100	None
1444511160	None
1444511220	None
1444511280	None
1444511340	None
1444511400	None
1444511460	None
1444511520	None
1444511580	None
1444511640	None
1444511700	None
1444511760	None
1444511820	None
1444511880	None
1444511940	None
1444512000	None
1444512060	None
1444512120	None
1444512180	None
1444512240	None
1444512300	None
1444512360	None
1444512420	None
1444512480	None
1444512540	None
1444512600	None
1444512660	None
1444512720	None
1444512780	None
1444512840	None
1444512900	None
1444512960	None
1444513020	None
1444513080	None
1444513140	None
1444513200	None
1444513260	None
1444513320	None
1444513380	None
1444513440	None
1444513500	None
1444513560	None
1444513620	None
1444513680	None
1444513740	None
1444513800	None
1444513860	None
1444513920	None
1444513980	None
1444514040	None
1444514100	None
1444514160	None
1444514220	None
1444514280	None
1444514340	None
1444514400	None
1444514460	None
1444514520	None
1444514580	None
1444514640	None
1444514700	None
1444514760	None
1444514820	None
1444514880	None
1444514940	None
1444515000	None
1444515060	None
1444515120	None
1444515180	None
1444515240	None
1444515300	None
1444515360	None
1444515420	None
1444515480	None
1444515540	None
1444515600	None
1444515660	None
1444515720	None
1444515780	None
1444515840	None
1444515900	None
1444515960	None
1444516020	None
1444516080	None
1444516140	None
1444516200	None
1444516260	None
1444516320	None
1444516380	None
1444516440	None
1444516500	None
1444516560	None
1444516620	None
1444516680	None
1444516740	None
1444516800	None
1444516860	None
1444516920	None
1444516980	None
1444517040	None
1444517100	None
1444517160	None
1444517220	None
1444517280	None
1444517340	None
1444517400	None
1444517460	None
1444517520	None
1444517580	None
1444517640	None
1444517700	None
1444517760	None
1444517820	None
1444517880	None
1444517940	None
1444518000	None
1444518060	None
1444518120	None
1444518180	None
1444518240	None
1444518300	None
1444518360	None
1444518420	None
1444518480	None
1444518540	None
1444518600	None
1444518660	None
1444518720	None
1444518780	None
1444518840	None
1444518900	None
1444518960	None
1444519020	None
1444519080	None
1444519140	None
1444519200	None
1444519260	None
1444519320	None
1444519380	None
1444519440	None
1444519500	None
1444519560	None
1444519620	None
1444519680	None
1444519740	None
1444519800	None
1444519860	None
1444519920	None
1444519980	None
1444520040	None
1444520100	None
1444520160	None
1444520220	None
1444520280	None
1444520340	None
1444520400	None
1444520460	None
1444520520	None
1444520580	None
1444520640	None
1444520700	None
1444520760	None
1444520820	None
1444520880	None
1444520940	None
1444521000	None
1444521060	None
1444521120	None
1444521180	None
1444521240	None
1444521300	None
1444521360	None
1444521420	None
1444521480	None
1444521540	None
1444521600	None
1444521660	None
1444521720	None
1444521780	None
1444521840	None
1444521900	None
1444521960	None
1444522020	None
1444522080	None
1444522140	None
1444522200	None
1444522260	None
1444522320	None
1444522380	None
1444522440	None
1444522500	None
1444522560	None
1444522620	None
1444522680	None
1444522740	None
1444522800	None
1444522860	None
1444522920	None
1444522980	None
1444523040	None
1444523100	None
1444523160	None
1444523220	None
1444523280	None
1444523340	None
1444523400	None
1444523460	None
1444523520	None
1444523580	None
1444523640	None
1444523700	None
1444523760	None
1444523820	None
1444523880	None
1444523940	None
1444524000	None
1444524060	None
1444524120	None
1444524180	None
1444524240	None
1444524300	None
1444524360	None
1444524420	None
1444524480	None
1444524540	None
1444524600	None
1444524660	None
1444524720	None
1444524780	None
1444524840	None
1444524900	None
1444524960	None
1444525020	None
1444525080	None
1444525140	None
1444525200	None
1444525260	None
1444525320	None
1444525380	None
1444525440	None
1444525500	None
1444525560	None
1444525620	None
1444525680	None
1444525740	None
1444525800	None
1444525860	None
1444525920	None
1444525980	None
1444526040	None
1444526100	None
1444526160	None
1444526220	None
1444526280	None
1444526340	None
1444526400	None
1444526460	None
1444526520	None
1444526580	None
1444526640	None
1444526700	None
1444526760	None
1444526820	None
1444526880	None
1444526940	None
1444527000	None
1444527060	None
1444527120	None
1444527180	None
1444527240	None
1444527300	None
1444527360	None
1444527420	None
1444527480	None
1444527540	None
1444527600	None
1444527660	None
1444527720	None
1444527780	None
1444527840	None
1444527900	None
1444527960	None
1444528020	None
1444528080	None
1444528140	None
1444528200	None
1444528260	None
1444528320	None
1444528380	None
1444528440	None
1444528500	None
1444528560	None
1444528620	None
1444528680	None
1444528740	None
1444528800	None
1444528860	None
1444528920	None
1444528980	None
1444529040	None
1444529100	None
1444529160	None
1444529220	None
1444529280	None
1444529340	None
1444529400	None
1444529460	None
1444529520	None
1444529580	None
1444529640	None
1444529700	None
1444529760	None
1444529820	None
1444529880	None
1444529940	90.950000
1444530000	91.020000
1444530060	91.100000
1444530120	91.180000
1444530180	91.260000
1444530240	91.330000
1444530300	91.410000
1444530360	91.480000
1444530420	91.560000
1444530480	91.640000
1444530540	91.710000
1444530600	91.780000
1444530660	91.860000
1444530720	91.930000
1444530780	92.000000
1444530840	92.080000
1444530900	92.150000
1444530960	92.220000
1444531020	92.300000
1444531080	92.370000
1444531140	92.440000
1444531200	92.520000
1444531260	92.590000
1444531320	92.660000
1444531380	92.730000
1444531440	92.800000
1444531500	92.880000
1444531560	92.950000
1444531620	93.020000
1444531680	93.090000
1444531740	93.160000
1444531800	93.230000
1444531860	93.300000
1444531920	93.370000
1444531980	93.440000
1444532040	93.510000
1444532100	93.580000
1444532160	93.650000
1444532220	93.720000
1444532280	93.790000
1444532340	93.850000
1444532400	93.920000
1444532460	93.990000
1444532520	94.060000
1444532580	94.130000
1444532640	94.190000
1444532700	94.260000
1444532760	94.330000
1444532820	94.400000
1444532880	94.470000
1444532940	94.540000
1444533000	94.600000
1444533060	94.670000
1444533120	94.730000
1444533180	94.800000
1444533240	94.870000
1444533300	94.930000
1444533360	95.000000
1444533420	95.070000
1444533480	95.130000
1444533540	95.200000
1444533600	95.270000
1444533660	95.330000
1444533720	95.400000
1444533780	95.460000
1444533840	95.530000
1444533900	95.590000
1444533960	95.650000
1444534020	95.720000
1444534080	95.780000
1444534140	95.850000
1444534200	95.910000
1444534260	95.970000
1444534320	96.040000
1444534380	96.100000
1444534440	96.160000
1444534500	96.230000
1444534560	96.290000
1444534620	96.350000
1444534680	96.420000
1444534740	96.480000
1444534800	96.540000
1444534860	96.600000
1444534920	96.670000
1444534980	96.730000
1444535040	96.790000
1444535100	96.850000
1444535160	96.910000
1444535220	96.970000
1444535280	97.040000
1444535340	97.100000
1444535400	97.160000
1444535460	97.220000
1444535520	97.280000
1444535580	97.340000
1444535640	97.400000
1444535700	97.460000
1444535760	97.520000
1444535820	97.580000
1444535880	97.640000
1444535940	97.690000
1444536000	97.760000
1444536060	97.820000
1444536120	97.880000
1444536180	97.940000
1444536240	97.990000
1444536300	98.050000
1444536360	98.120000
1444536420	98.170000
1444536480	98.230000
1444536540	98.290000
1444536600	98.350000
1444536660	98.410000
1444536720	98.460000
1444536780	98.520000
1444536840	98.580000
1444536900	98.640000
1444536960	98.700000
1444537020	98.750000
1444537080	98.810000
1444537140	98.870000
1444537200	98.920000
1444537260	98.980000
1444537320	99.040000
1444537380	99.090000
1444537440	99.150000
1444537500	99.210000
1444537560	99.260000
1444537620	99.320000
1444537680	99.370000
1444537740	99.430000
1444537800	99.480000
1444537860	99.540000
1444537920	99.590000
1444537980	99.650000
1444538040	99.710000
1444538100	99.760000
1444538160	99.810000
1444538220	99.870000
1444538280	99.920000
1444538340	99.980000
1444538400	100.030000
1444538460	100.090000
1444538520	100.140000
1444538580	100.190000
1444538640	100.250000
1444538700	100.300000
1444538760	100.360000
1444538820	100.410000
1444538880	100.460000
1444538940	100.520000
1444539000	100.570000
1444539060	100.620000
1444539120	100.680000
1444539180	100.730000
1444539240	100.790000
1444539300	100.840000
1444539360	100.890000
1444539420	100.940000
1444539480	101.000000
1444539540	101.050000
1444539600	101.100000
1444539660	101.150000
1444539720	101.200000
1444539780	101.250000
1444539840	101.300000
1444539900	101.360000
1444539960	101.410000
1444540020	101.460000
1444540080	101.510000
1444540140	101.560000
1444540200	101.610000
1444540260	101.660000
1444540320	101.710000
1444540380	101.760000
1444540440	101.810000
1444540500	101.860000
1444540560	101.910000
1444540620	101.960000
1444540680	102.010000
1444540740	102.060000
1444540800	102.110000
1444540860	102.160000
1444540920	102.210000
1444540980	102.260000
1444541040	102.310000
1444541100	102.360000
1444541160	102.410000
1444541220	102.450000
1444541280	102.500000
1444541340	102.550000
1444541400	102.600000
1444541460	102.650000
1444541520	102.700000
1444541580	102.750000
1444541640	102.800000
1444541700	102.850000
1444541760	102.890000
1444541820	102.940000
1444541880	102.990000
1444541940	103.040000
1444542000	103.080000
1444542060	103.130000
1444542120	103.180000
1444542180	103.230000
1444542240	103.270000
1444542300	103.320000
1444542360	103.370000
1444542420	103.420000
1444542480	103.460000
1444542540	103.510000
1444542600	103.560000
1444542660	103.600000
1444542720	103.650000
1444542780	103.700000
1444542840	103.750000
1444542900	103.790000
1444542960	103.840000
1444543020	103.890000
1444543080	103.930000
1444543140	103.980000
1444543200	104.020000
1444543260	104.070000
1444543320	104.120000
1444543380	104.160000
1444543440	104.210000
1444543500	104.260000
1444543560	104.300000
1444543620	104.350000
1444543680	104.390000
1444543740	104.440000
1444543800	104.480000
1444543860	104.530000
1444543920	104.570000
1444543980	104.620000
1444544040	104.660000
1444544100	104.700000
1444544160	104.750000
1444544220	104.790000
1444544280	104.830000
1444544340	104.880000
1444544400	104.920000
1444544460	104.960000
1444544520	105.010000
1444544580	105.050000
1444544640	105.100000
1444544700	105.140000
1444544760	105.180000
1444544820	105.220000
1444544880	105.270000
1444544940	105.310000
1444545000	105.350000
1444545060	105.400000
1444545120	105.440000
1444545180	105.480000
1444545240	105.530000
1444545300	105.570000
1444545360	105.610000
1444545420	105.650000
1444545480	105.700000
1444545540	105.740000
1444545600	105.780000
1444545660	105.820000
1444545720	105.860000
1444545780	105.910000
1444545840	105.950000
1444545900	105.990000
1444545960	106.030000
1444546020	106.070000
1444546080	106.120000
1444546140	106.160000
1444546200	106.200000
1444546260	106.240000
1444546320	106.280000
1444546380	106.330000
1444546440	106.370000
1444546500	106.410000
1444546560	106.450000
1444546620	106.490000
1444546680	106.530000
1444546740	106.570000
1444546800	106.610000
1444546860	106.650000
1444546920	106.690000
1444546980	106.740000
1444547040	106.770000
1444547100	106.820000
1444547160	106.860000
1444547220	106.900000
1444547280	106.940000
1444547340	106.980000
1444547400	107.020000
1444547460	107.060000
1444547520	107.100000
1444547580	107.140000
1444547640	107.180000
1444547700	107.220000
1444547760	107.260000
1444547820	107.300000
1444547880	107.340000
1444547940	107.380000
1444548000	107.420000
1444548060	107.460000
1444548120	107.500000
1444548180	107.540000
1444548240	107.580000
1444548300	107.620000
1444548360	107.660000
1444548420	107.700000
1444548480	107.740000
1444548540	107.780000
1444548600	107.810000
1444548660	107.850000
1444548720	107.890000
1444548780	107.930000
1444548840	107.970000
1444548900	108.010000
1444548960	108.050000
1444549020	108.090000
1444549080	108.130000
1444549140	108.170000
1444549200	108.200000
1444549260	108.240000
1444549320	108.280000
1444549380	108.320000
1444549440	108.350000
1444549500	108.390000
1444549560	108.430000
1444549620	108.470000
1444549680	108.510000
1444549740	108.540000
1444549800	108.580000
1444549860	108.620000
1444549920	108.660000
1444549980	108.690000
1444550040	108.730000
1444550100	108.770000
1444550160	108.810000
1444550220	108.840000
1444550280	108.880000
1444550340	108.920000
1444550400	108.950000
1444550460	108.990000
1444550520	109.030000
1444550580	109.060000
1444550640	109.100000
1444550700	109.140000
1444550760	109.180000
1444550820	109.210000
1444550880	109.250000
1444550940	109.290000
1444551000	109.320000
1444551060	109.360000
1444551120	109.390000
1444551180	109.430000
1444551240	109.470000
1444551300	109.500000
1444551360	109.540000
1444551420	109.570000
1444551480	109.610000
1444551540	109.650000
1444551600	109.680000
1444551660	109.720000
1444551720	109.750000
1444551780	109.790000
1444551840	109.820000
1444551900	109.860000
1444551960	109.890000
1444552020	109.930000
1444552080	109.960000
1444552140	110.000000
1444552200	110.030000
1444552260	110.070000
1444552320	110.100000
1444552380	110.140000
1444552440	110.170000
1444552500	110.210000
1444552560	110.240000
1444552620	110.270000
1444552680	110.310000
1444552740	110.340000
1444552800	110.380000
1444552860	110.410000
1444552920	110.450000
1444552980	110.480000
1444553040	110.510000
1444553100	110.550000
1444553160	110.580000
1444553220	110.610000
1444553280	110.650000
1444553340	110.680000
1444553400	110.720000
1444553460	110.750000
1444553520	110.780000
1444553580	110.810000
1444553640	110.850000
1444553700	110.880000
1444553760	110.910000
1444553820	110.950000
1444553880	110.980000
1444553940	111.010000
1444554000	111.040000
1444554060	111.080000
1444554120	111.110000
1444554180	111.140000
1444554240	111.180000
1444554300	111.210000
1444554360	111.240000
1444554420	111.270000
1444554480	111.310000
1444554540	111.340000
1444554600	111.370000
1444554660	111.400000
1444554720	111.430000
1444554780	111.460000
1444554840	111.500000
1444554900	111.530000
1444554960	111.560000
1444555020	111.590000
1444555080	111.620000
1444555140	111.660000
1444555200	111.690000
1444555260	111.720000
1444555320	111.750000
1444555380	111.780000
1444555440	111.820000
1444555500	111.850000
1444555560	111.880000
1444555620	111.910000
1444555680	111.940000
1444555740	111.970000
1444555800	112.010000
1444555860	112.040000
1444555920	112.070000
1444555980	112.100000
1444556040	112.130000
1444556100	112.160000
1444556160	112.190000
1444556220	112.220000
1444556280	112.260000
1444556340	112.290000
1444556400	112.320000
1444556460	112.350000
1444556520	112.380000
1444556580	112.410000
1444556640	112.440000
1444556700	112.470000
1444556760	112.500000
1444556820	112.530000
1444556880	112.560000
1444556940	112.590000
1444557000	112.620000
1444557060	112.650000
1444557120	112.680000
1444557180	112.710000
1444557240	112.740000
1444557300	112.770000
1444557360	112.800000
1444557420	112.830000
1444557480	112.860000
1444557540	112.890000
1444557600	112.920000
1444557660	112.950000
1444557720	112.980000
1444557780	113.010000
1444557840	113.040000
1444557900	113.070000
1444557960	113.100000
1444558020	113.130000
1444558080	113.160000
1444558140	113.190000
1444558200	113.210000
1444558260	113.230000
1444558320	None
1444558380	None
1444558440	None
1444558500	None
1444558560	None
1444558620	None
1444558680	None
1444558740	None
1444558800	None
1444558860	None
1444558920	None
1444558980	None
1444559040	None
1444559100	None
1444559160	None
1444559220	None
1444559280	None
1444559340	None
1444559400	None
1444559460	None
1444559520	None
1444559580	None
1444559640	None
1444559700	None
1444559760	None
1444559820	None
1444559880	None
1444559940	None
1444560000	None
1444560060	None
1444560120	None
1444560180	None
1444560240	None
1444560300	None
1444560360	None
1444560420	None
1444560480	None
1444560540	None
1444560600	None
1444560660	None
1444560720	None
1444560780	None
1444560840	None
1444560900	None
1444560960	None
1444561020	None
1444561080	None
1444561140	None
1444561200	None
1444561260	None
1444561320	None
1444561380	None
1444561440	None
1444561500	None
1444561560	None
1444561620	None
1444561680	None
1444561740	None
1444561800	None
1444561860	None
1444561920	None
1444561980	None
1444562040	None
1444562100	None
1444562160	None
1444562220	None
1444562280	None
1444562340	None
1444562400	None
1444562460	None
1444562520	None
1444562580	None
1444562640	None
1444562700	None
1444562760	None
1444562820	None
1444562880	None
1444562940	None
1444563000	None
1444563060	None
1444563120	None
1444563180	None
1444563240	None
1444563300	None
1444563360	None
1444563420	None
1444563480	None
1444563540	None
1444563600	None
1444563660	None
1444563720	None
1444563780	None
1444563840	None
1444563900	None
1444563960	None
1444564020	None
1444564080	None
1444564140	None
1444564200	None
1444564260	None
1444564320	None
1444564380	None
1444564440	None
1444564500	None
1444564560	None
1444564620	None
1444564680	None
1444564740	None
1444564800	None
1444564860	None
1444564920	None
1444564980	None
1444565040	None
1444565100	None
1444565160	None
1444565220	None
1444565280	None
1444565340	None
1444565400	None
